…
The first argument to the function will be the dataframe in question, so
use this format: `select(data, column1, column2, etc...)`.

With `%>%`, this format becomes:
`data %>% select(column1, column2, etc...)`

Let’s select the `name`, `calories`, and `fiber` columns and see what it
spits out as output

``` r
cereal %>% 
  select(name, calories, fiber)
```

    # A tibble: 77 × 3
       name                      calories fiber
       <chr>                        <dbl> <dbl>
     1 100% Bran                       70  10  
     2 100% Natural Bran              120   2  
     3 All-Bran                        70   9  
     4 All-Bran with Extra Fiber       50  14  
     5 Almond Delight                 110   1  
     6 Apple Cinnamon Cheerios        110   1.5
     7 Apple Jacks                    110   1  
     8 Basic 4                        130   2  
     9 Bran Chex                       90   4  
    10 Bran Flakes                     90   5  
    # ℹ 67 more rows
…
``` r
cereal_fiber <- cereal %>% 
  select(name, calories, fiber)
```

You can also tell select to **exclude** certain columns by using a minus
sign in front of the column name

``` r
cereal %>% 
  select(-name, -mfr)
```

    # A tibble: 77 × 14
       type  calories protein   fat sodium fiber carbo sugars potass vitamins shelf
       <chr>    <dbl>   <dbl> <dbl>  <dbl> <dbl> <dbl>  <dbl>  <dbl>    <dbl> <dbl>
     1 C           70       4     1    130  10     5        6    280       25     3
     2 C          120       3     5     15   2     8        8    135        0     3
     3 C           70       4     1    260   9     7        5    320       25     3
     4 C           50       4     0    140  14     8        0    330       25     3
     5 C          110       2     2    200   1    14        8     -1       25     3
     6 C          110       2     2    180   1.5  10.5     10     70       25     1
     7 C          110       2     0    125   1    11       14     30       25     2
     8 C          130       3     2    210   2    18        8    100       25     3
     9 C           90       2     1    200   4    15        6    125       25     1
    10 C           90       3     0    210   5    13        5    190       25     3
    # ℹ 67 more rows
    # ℹ 3 more variables: weight <dbl>, cups <dbl>, rating <dbl>
…
## 1.4 `rename()` columns

Renaming columns is easy: Pipe the data in and put the new column name
in front of the old column name:

`data %>% rename(new_column_name = old_column_name)`

``` r
cereal_sugar %>% 
  # Rename the mfr column to a more informative manufacturer
  rename(manufacturer = mfr)
```

    # A tibble: 77 × 3
       name                      manufacturer   sugars
       <chr>                     <chr>           <dbl>
     1 100% Bran                 Nabisco             6
     2 100% Natural Bran         Quaker_Oats         8
     3 All-Bran                  Kelloggs            5
     4 All-Bran with Extra Fiber Kelloggs            0
     5 Almond Delight            Ralston_Purina      8
     6 Apple Cinnamon Cheerios   General_Mills      10
     7 Apple Jacks               Kelloggs           14
     8 Basic 4                   General_Mills       8
     9 Bran Chex                 Ralston_Purina      6
    10 Bran Flakes               Post                5
    # ℹ 67 more rows

Separate multiple renamed columns with commas:

``` r
cereal_sugar %>% 
  rename(manufacturer = mfr,
         cereal_name = name)
```

    # A tibble: 77 × 3
       cereal_name               manufacturer   sugars
       <chr>                     <chr>           <dbl>
     1 100% Bran                 Nabisco             6
     2 100% Natural Bran         Quaker_Oats         8
     3 All-Bran                  Kelloggs            5
     4 All-Bran with Extra Fiber Kelloggs            0
     5 Almond Delight            Ralston_Purina      8
     6 Apple Cinnamon Cheerios   General_Mills      10
     7 Apple Jacks               Kelloggs           14
     8 Basic 4                   General_Mills       8
     9 Bran Chex                 Ralston_Purina      6
    10 Bran Flakes               Post                5
    # ℹ 67 more rows
…
`data %>% relocate(column, .after = A)`
`data %>% relocate(column, .before = C)`

For instance, to put the `mfr` column before the `name` column:

``` r
cereal_sugar %>% 
  relocate(mfr, .before = name)
```

    # A tibble: 77 × 3
       mfr            name                      sugars
       <chr>          <chr>                      <dbl>
     1 Nabisco        100% Bran                      6
     2 Quaker_Oats    100% Natural Bran              8
     3 Kelloggs       All-Bran                       5
     4 Kelloggs       All-Bran with Extra Fiber      0
     5 Ralston_Purina Almond Delight                 8
     6 General_Mills  Apple Cinnamon Cheerios       10
     7 Kelloggs       Apple Jacks                   14
     8 General_Mills  Basic 4                        8
     9 Ralston_Purina Bran Chex                      6
    10 Post           Bran Flakes                    5
    # ℹ 67 more rows
…
We can now see that 9 of the cereals in this dataset have greater than
12 grams of sugar.

*Which cereals are manufactured by Kelloggs?* We use the “exactly equal
to” operator here because we want rows where the value in the mfr
exactly matches that character string we provided.

``` r
cereal_sugar %>% 
  filter(mfr == "Kelloggs")
```

    # A tibble: 23 × 3
       name                      mfr      sugars
       <chr>                     <chr>     <dbl>
     1 All-Bran                  Kelloggs      5
     2 All-Bran with Extra Fiber Kelloggs      0
     3 Apple Jacks               Kelloggs     14
     4 Corn Flakes               Kelloggs      2
     5 Corn Pops                 Kelloggs     12
     6 Cracklin' Oat Bran        Kelloggs      7
     7 Crispix                   Kelloggs      3
     8 Froot Loops               Kelloggs     13
     9 Frosted Flakes            Kelloggs     11
    10 Frosted Mini-Wheats       Kelloggs      7
    # ℹ 13 more rows
…
------------------------------------------------------------------------

## 1.7 `arrange()` your rows by value

The `arrange()` function simply allows us to sort our dataframe’s rows
by the values of certain columns in either ascending (lowest to highest:
the default) or descending order. This arranges the rows by the
`calories` column:

``` r
cereal %>% 
  arrange(calories)
```

    # A tibble: 77 × 16
       name      mfr   type  calories protein   fat sodium fiber carbo sugars potass
       <chr>     <chr> <chr>    <dbl>   <dbl> <dbl>  <dbl> <dbl> <dbl>  <dbl>  <dbl>
     1 All-Bran… Kell… C           50       4     0    140    14     8      0    330
     2 Puffed R… Quak… C           50       1     0      0     0    13      0     15
     3 Puffed W… Quak… C           50       2     0      0     1    10      0     50
     4 100% Bran Nabi… C           70       4     1    130    10     5      6    280
     5 All-Bran  Kell… C           70       4     1    260     9     7      5    320
     6 Shredded… Nabi… C           80       2     0      0     3    16      0     95
     7 Bran Chex Rals… C           90       2     1    200     4    15      6    125
     8 Bran Fla… Post  C           90       3     0    210     5    13      5    190
     9 Nutri-gr… Kell… C           90       3     0    170     3    18      2     90
    10 Raisin S… Kell… C           90       2     0      0     2    15      6    110
    # ℹ 67 more rows
    # ℹ 5 more variables: vitamins <dbl>, shelf <dbl>, weight <dbl>, cups <dbl>,
    #   rating <dbl>

``` r
cereal %>% 
  # The desc() reverses the order, making it highest to lowest
  arrange(desc(calories))
```

    # A tibble: 77 × 16
       name      mfr   type  calories protein   fat sodium fiber carbo sugars potass
       <chr>     <chr> <chr>    <dbl>   <dbl> <dbl>  <dbl> <dbl> <dbl>  <dbl>  <dbl>
     1 Mueslix … Kell… C          160       3     2    150   3    17       13    160
     2 Muesli R… Rals… C          150       4     3     95   3    16       11    170
     3 Muesli R… Rals… C          150       4     3    150   3    16       11    170
     4 Just Rig… Kell… C          140       3     1    170   2    20        9     95
     5 Nutri-Gr… Kell… C          140       3     2    220   3    21        7    130
     6 Total Ra… Gene… C          140       3     1    190   4    15       14    230
     7 Basic 4   Gene… C          130       3     2    210   2    18        8    100
     8 Oatmeal … Gene… C          130       3     2    170   1.5  13.5     10    120
     9 100% Nat… Quak… C          120       3     5     15   2     8        8    135
    10 Cap'n'Cr… Quak… C          120       1     2    220   0    12       12     35
    # ℹ 67 more rows
    # ℹ 5 more variables: vitamins <dbl>, shelf <dbl>, weight <dbl>, cups <dbl>,
    #   rating <dbl>

Arranging by a character column will sort it alphabetically. You can
sort by two columns by separating the column names with commas

``` r
cereal %>% 
  arrange(mfr, calories)
```

    # A tibble: 77 × 16
       name      mfr   type  calories protein   fat sodium fiber carbo sugars potass
       <chr>     <chr> <chr>    <dbl>   <dbl> <dbl>  <dbl> <dbl> <dbl>  <dbl>  <dbl>
     1 Maypo     Amer… H          100       4     1      0   0    16        3     95
     2 Crispy W… Gene… C          100       2     1    140   2    11       10    120
     3 Multi-Gr… Gene… C          100       2     1    220   2    15        6     90
     4 Raisin N… Gene… C          100       3     2    140   2.5  10.5      8    140
     5 Total Wh… Gene… C          100       3     1    200   3    16        3    110
     6 Wheaties  Gene… C          100       3     1    200   3    17        3    110
     7 Apple Ci… Gene… C          110       2     2    180   1.5  10.5     10     70
     8 Cheerios  Gene… C          110       6     2    290   2    17        1    105
     9 Clusters  Gene… C          110       3     2    140   2    13        7    105
    10 Cocoa Pu… Gene… C          110       1     1    180   0    12       13     55
    # ℹ 67 more rows
    # ℹ 5 more variables: vitamins <dbl>, shelf <dbl>, weight <dbl>, cups <dbl>,
    #   rating <dbl>
…
Now, let’s say that you always eat two servings of cereal, so you want
to faithfully calculate the total sugar you’re going to consume. Let’s
create a new column which is the `sugars` column x 2

``` r
cereal_carbs %>% 
  # in this case, the new sugars_total column is going to be 2 times the sugars column
  mutate(sugars_total = sugars*2)
```

    # A tibble: 77 × 4
       name                      carbo sugars sugars_total
       <chr>                     <dbl>  <dbl>        <dbl>
     1 100% Bran                   5        6           12
     2 100% Natural Bran           8        8           16
     3 All-Bran                    7        5           10
     4 All-Bran with Extra Fiber   8        0            0
     5 Almond Delight             14        8           16
     6 Apple Cinnamon Cheerios    10.5     10           20
     7 Apple Jacks                11       14           28
     8 Basic 4                    18        8           16
     9 Bran Chex                  15        6           12
    10 Bran Flakes                13        5           10
    # ℹ 67 more rows

What happens if I use an existing column name as the new column name?
Answer: *it overwrites the existing column in the new* data object.
Let’s try it:

``` r
cereal_carbs %>% 
  mutate(sugars = sugars*2)
```

    # A tibble: 77 × 3
       name                      carbo sugars
       <chr>                     <dbl>  <dbl>
     1 100% Bran                   5       12
     2 100% Natural Bran           8       16
     3 All-Bran                    7       10
     4 All-Bran with Extra Fiber   8        0
     5 Almond Delight             14       16
     6 Apple Cinnamon Cheerios    10.5     20
     7 Apple Jacks                11       28
     8 Basic 4                    18       16
     9 Bran Chex                  15       12
    10 Bran Flakes                13       10
    # ℹ 67 more rows

Note that the new output that `mutate()` created now no longer has the
data from the original `sugars` column, BUT the original input data from
`cereal_carbs` is still unaltered.

``` r
# Check that the original cereal_carbs data is unaltered
cereal_carbs
```

    # A tibble: 77 × 3
       name                      carbo sugars
       <chr>                     <dbl>  <dbl>
     1 100% Bran                   5        6
     2 100% Natural Bran           8        8
     3 All-Bran                    7        5
     4 All-Bran with Extra Fiber   8        0
     5 Almond Delight             14        8
     6 Apple Cinnamon Cheerios    10.5     10
     7 Apple Jacks                11       14
     8 Basic 4                    18        8
     9 Bran Chex                  15        6
    10 Bran Flakes                13        5
    # ℹ 67 more rows
…
------------------------------------------------------------------------

Back to `mutate()`:

Lets do addition and make the new column equal to the sugars plus the
sugar we get from eating cereal with milk (let’s pretend that the milk
contributes 5 grams of sugar).

``` r
cereal_carbs %>% 
  mutate(sugars_with_milk = sugars + 5)
```

    # A tibble: 77 × 4
       name                      carbo sugars sugars_with_milk
       <chr>                     <dbl>  <dbl>            <dbl>
     1 100% Bran                   5        6               11
     2 100% Natural Bran           8        8               13
     3 All-Bran                    7        5               10
     4 All-Bran with Extra Fiber   8        0                5
     5 Almond Delight             14        8               13
     6 Apple Cinnamon Cheerios    10.5     10               15
     7 Apple Jacks                11       14               19
     8 Basic 4                    18        8               13
     9 Bran Chex                  15        6               11
    10 Bran Flakes                13        5               10
    # ℹ 67 more rows

What if we want to add multiple new columns at once? We can do that by:

1.  Using 2 mutate functions in a row

``` r
cereal_carbs %>% 
  mutate(total_carbs = carbo + sugars) %>% 
  mutate(sugars_with_milk = sugars + 5)
```

    # A tibble: 77 × 5
       name                      carbo sugars total_carbs sugars_with_milk
       <chr>                     <dbl>  <dbl>       <dbl>            <dbl>
     1 100% Bran                   5        6        11                 11
     2 100% Natural Bran           8        8        16                 13
     3 All-Bran                    7        5        12                 10
     4 All-Bran with Extra Fiber   8        0         8                  5
     5 Almond Delight             14        8        22                 13
     6 Apple Cinnamon Cheerios    10.5     10        20.5               15
     7 Apple Jacks                11       14        25                 19
     8 Basic 4                    18        8        26                 13
     9 Bran Chex                  15        6        21                 11
    10 Bran Flakes                13        5        18                 10
    # ℹ 67 more rows

But a cleaner method is to simply:

1.  Separating the two equations within the one mutate function with
    commas

``` r
cereal_carbs %>% 
  mutate(total_carbs = carbo + sugars,
         sugars_with_milk = sugars + 5)
```

    # A tibble: 77 × 5
       name                      carbo sugars total_carbs sugars_with_milk
       <chr>                     <dbl>  <dbl>       <dbl>            <dbl>
     1 100% Bran                   5        6        11                 11
     2 100% Natural Bran           8        8        16                 13
     3 All-Bran                    7        5        12                 10
     4 All-Bran with Extra Fiber   8        0         8                  5
     5 Almond Delight             14        8        22                 13
     6 Apple Cinnamon Cheerios    10.5     10        20.5               15
     7 Apple Jacks                11       14        25                 19
     8 Basic 4                    18        8        26                 13
     9 Bran Chex                  15        6        21                 11
    10 Bran Flakes                13        5        18                 10
    # ℹ 67 more rows
…
